lab6real/lab6real.sim/sim_1/behav/xsim/simulate.log
Vivado Simulator 2020.1
Time resolution is 1 ps
                   0 instruction=1101000000000000 opcode=1101 rs_addr=00 rt_addr=00 rd_addr=00 RegDst=1 RegWrite=1 ALUSrc1=1 ALUSrc2=0 ALUOp=010 MemWrite=0 MemToReg=0
                   5 instruction=0000000000000000 opcode=0000 rs_addr=00 rt_addr=00 rd_addr=00 RegDst=0 RegWrite=1 ALUSrc1=0 ALUSrc2=1 ALUOp=000 MemWrite=0 MemToReg=1
                  20 instruction=0100000101000000 opcode=0100 rs_addr=00 rt_addr=01 rd_addr=01 RegDst=1 RegWrite=1 ALUSrc1=0 ALUSrc2=0 ALUOp=001 MemWrite=0 MemToReg=0
                  30 instruction=1010010100000011 opcode=1010 rs_addr=01 rt_addr=01 rd_addr=00 RegDst=0 RegWrite=1 ALUSrc1=0 ALUSrc2=0 ALUOp=101 MemWrite=0 MemToReg=0
                  40 instruction=0011000000000000 opcode=0011 rs_addr=00 rt_addr=00 rd_addr=00 RegDst=0 RegWrite=1 ALUSrc1=0 ALUSrc2=1 ALUOp=000 MemWrite=0 MemToReg=0
                  50 instruction=0100000000000000 opcode=0100 rs_addr=00 rt_addr=00 rd_addr=00 RegDst=1 RegWrite=1 ALUSrc1=0 ALUSrc2=0 ALUOp=001 MemWrite=0 MemToReg=0
                  60 instruction=0101000000000000 opcode=0101 rs_addr=00 rt_addr=00 rd_addr=00 RegDst=1 RegWrite=1 ALUSrc1=0 ALUSrc2=0 ALUOp=010 MemWrite=0 MemToReg=0
                  70 instruction=0110000000000000 opcode=0110 rs_addr=00 rt_addr=00 rd_addr=00 RegDst=0 RegWrite=1 ALUSrc1=0 ALUSrc2=1 ALUOp=010 MemWrite=0 MemToReg=0
                  80 instruction=0111000000000000 opcode=0111 rs_addr=00 rt_addr=00 rd_addr=00 RegDst=1 RegWrite=1 ALUSrc1=0 ALUSrc2=0 ALUOp=011 MemWrite=0 MemToReg=0
                  90 instruction=1000000000000000 opcode=1000 rs_addr=00 rt_addr=00 rd_addr=00 RegDst=0 RegWrite=1 ALUSrc1=0 ALUSrc2=1 ALUOp=011 MemWrite=0 MemToReg=0
                 100 instruction=1001000000000000 opcode=1001 rs_addr=00 rt_addr=00 rd_addr=00 RegDst=0 RegWrite=1 ALUSrc1=0 ALUSrc2=0 ALUOp=100 MemWrite=0 MemToReg=0
                 110 instruction=1010000000000000 opcode=1010 rs_addr=00 rt_addr=00 rd_addr=00 RegDst=0 RegWrite=1 ALUSrc1=0 ALUSrc2=0 ALUOp=101 MemWrite=0 MemToReg=0
                 120 instruction=1011000000000000 opcode=1011 rs_addr=00 rt_addr=00 rd_addr=00 RegDst=0 RegWrite=0 ALUSrc1=0 ALUSrc2=0 ALUOp=110 MemWrite=0 MemToReg=0
                 130 instruction=1100000000000000 opcode=1100 rs_addr=00 rt_addr=00 rd_addr=00 RegDst=0 RegWrite=0 ALUSrc1=0 ALUSrc2=0 ALUOp=111 MemWrite=0 MemToReg=0
                 140 instruction=1101000000000000 opcode=1101 rs_addr=00 rt_addr=00 rd_addr=00 RegDst=1 RegWrite=1 ALUSrc1=1 ALUSrc2=0 ALUOp=010 MemWrite=0 MemToReg=0
$finish called at time : 150 ns : File "C:/Users/bodmer.d/labs/lab6real/lab6real.srcs/sim_1/new/pdatapath_tb.v" Line 55
